Randomise plates for repeat pairs
…
  write_csv(well_info,
            str_c(dir, "well_info_plate", x, ".csv"))
  
  return(well_info)
}) %>%
  bind_rows()

## # A tibble: 96 x 2
##    sample_id replicate
##    <chr>     <chr>    
##  1 BPH3423   2        
##  2 BPH2799   3        
##  3 BPH2700   1        
##  4 BPH2798   1        
##  5 JE2       3        
##  6 BPH2823   1        
##  7 BPH2710   2        
##  8 BPH3751   1        
##  9 BPH3208   2        
## 10 BPH2876   3        
## #  with 86 more rows

## Warning in if (n_replicates_controls == c(4, 2, 3, 3)) {: the condition has
## length > 1 and only the first element will be used

## # A tibble: 96 x 2
##    sample_id replicate
##    <chr>     <chr>    
##  1 BPH3270   2        
##  2 BPH2923   3        
##  3 BPH2737   1        
##  4 BPH2904   1        
##  5 JE2       3        
##  6 BPH2925   1        
##  7 BPH2784   2        
##  8 BPH3688   1        
##  9 BPH2966   2        
## 10 BPH2963   3        
## #  with 86 more rows

## Warning in if (n_replicates_controls == c(4, 2, 3, 3)) {: the condition has
## length > 1 and only the first element will be used

## # A tibble: 96 x 2
##    sample_id replicate
##    <chr>     <chr>    
##  1 BPH3652   2        
##  2 BPH3499   3        
##  3 BPH3336   1        
##  4 BPH3489   1        
##  5 JE2       3        
##  6 BPH3523   1        
##  7 BPH3368   2        
##  8 BPH3744   1        
##  9 BPH3568   2        
## 10 BPH3545   3        
## #  with 86 more rows

## Warning in if (n_replicates_controls == c(4, 2, 3, 3)) {: the condition has
## length > 1 and only the first element will be used

## # A tibble: 96 x 2
##    sample_id    replicate
##    <chr>        <chr>    
##  1 Non infected 2        
##  2 Non infected 3        
##  3 BPH3541      1        
##  4 Non infected 1        
##  5 Non infected 3        
##  6 Non infected 1        
##  7 BPH3708      2        
##  8 Non infected 1        
##  9 Non infected 2        
## 10 Non infected 3        
## #  with 86 more rows
…
