Compare JE2 across plates
…
09/12/2019

library(tidyverse)
library(magrittr)

rm(list = ls())

Import data

# setwd("Data_analysis")
file <- "../Data_parsing/dataframes/all_PI_kinetics_well_info.csv"
df_kinetics <- read_csv(file)
df_kinetics

## # A tibble: 480,536 x 11
##    well  wave_length f_signal timepoint well_row well_col experiment
##    <chr> <chr>          <dbl>     <dbl> <chr>    <chr>    <chr>     
##  1 A01   WL493          37240         0 A        01       exp190831 
##  2 A02   WL493          36764         0 A        02       exp190831 
##  3 A03   WL493          37015         0 A        03       exp190831 
##  4 A04   WL493          36446         0 A        04       exp190831 
##  5 A05   WL493          37326         0 A        05       exp190831 
##  6 A06   WL493          36336         0 A        06       exp190831 
##  7 A07   WL493          36299         0 A        07       exp190831 
##  8 A08   WL493          36833         0 A        08       exp190831 
##  9 A09   WL493          36706         0 A        09       exp190831 
## 10 A10   WL493          36695         0 A        10       exp190831 
## #  with 480,526 more rows, and 4 more variables: cell_number <dbl>,
## #   plate <dbl>, sample_id <chr>, replicate <dbl>

JE2_dat <- df_kinetics %>%
  filter(sample_id == "JE2")
JE2_dat

## # A tibble: 15,141 x 11
##    well  wave_length f_signal timepoint well_row well_col experiment
##    <chr> <chr>          <dbl>     <dbl> <chr>    <chr>    <chr>     
##  1 C12   WL493          36474         0 C        12       exp190831 
##  2 E01   WL493          36797         0 E        01       exp190831 
##  3 F11   WL493          36089         0 F        11       exp190831 
##  4 C12   WL493          36333         6 C        12       exp190831 
##  5 E01   WL493          36181         6 E        01       exp190831 
##  6 F11   WL493          35999         6 F        11       exp190831 
##  7 C12   WL493          36325        12 C        12       exp190831 
##  8 E01   WL493          36241        12 E        01       exp190831 
##  9 F11   WL493          35512        12 F        11       exp190831 
## 10 C12   WL493          36290        18 C        12       exp190831 
## #  with 15,131 more rows, and 4 more variables: cell_number <dbl>,
## #   plate <dbl>, sample_id <chr>, replicate <dbl>
…
Compare with inoculum OD data

file <- "../Data_parsing/dataframes/all_inoculum_OD_well_info.csv"
inocula_data <- read_csv(file)

JE2_inocula_data <- inocula_data %>%
  filter(sample_id == "JE2") %>%
  filter(inoculum_OD_blank_normalised) %>%
  select(well, inoculum_OD, sample_id, experiment)
# merge
df <- JE2_dat %>%
  left_join(JE2_inocula_data, by = c("well", "sample_id", "experiment"))
df

## # A tibble: 15,141 x 12
##    well  wave_length f_signal timepoint well_row well_col experiment
##    <chr> <chr>          <dbl>     <dbl> <chr>    <chr>    <chr>     
##  1 C12   WL493          36474         0 C        12       exp190831 
##  2 E01   WL493          36797         0 E        01       exp190831 
##  3 F11   WL493          36089         0 F        11       exp190831 
##  4 C12   WL493          36333         6 C        12       exp190831 
##  5 E01   WL493          36181         6 E        01       exp190831 
##  6 F11   WL493          35999         6 F        11       exp190831 
##  7 C12   WL493          36325        12 C        12       exp190831 
##  8 E01   WL493          36241        12 E        01       exp190831 
##  9 F11   WL493          35512        12 F        11       exp190831 
## 10 C12   WL493          36290        18 C        12       exp190831 
## #  with 15,131 more rows, and 5 more variables: cell_number <dbl>,
## #   plate <dbl>, sample_id <chr>, replicate <dbl>, inoculum_OD <dbl>
…
